<?xml version="1.0" encoding="utf-8"?>
<!-- Generator: Adobe Illustrator 16.0.0, SVG Export Plug-In . SVG Version: 6.00 Build 0)  -->
<!DOCTYPE svg PUBLIC "-//W3C//DTD SVG 1.1//EN" "http://www.w3.org/Graphics/SVG/1.1/DTD/svg11.dtd">
<svg version="1.1" id="Capa_1" xmlns="http://www.w3.org/2000/svg" xmlns:xlink="http://www.w3.org/1999/xlink" x="0px" y="0px"
	 width="64px" height="83.333px" viewBox="0 0 64 83.333" enable-background="new 0 0 64 83.333" xml:space="preserve">
<g>
	<g>
		<path fill="#BA678B" d="M0,41.518v24.746c0,9.338,7.568,16.907,16.906,16.907l0,0V41.518H0z"/>
		<path fill="#8F4D6A" d="M16.906,83.171L16.906,83.171c9.338,0,16.906-7.569,16.906-16.907V41.518H16.906V83.171z"/>
		<path fill="#FFFFFF" d="M16.906,0L16.906,0C7.568,0,0,7.57,0,16.906v24.611h16.906V0z"/>
		<path fill="#E7E6E5" d="M16.906,0L16.906,0v41.518h16.906V16.906C33.813,7.57,26.244,0,16.906,0z"/>
	</g>
	<g>
		<circle fill="#E7E6E5" cx="45.233" cy="64.043" r="18.602"/>
		<g>
			<path fill="#E7E6E5" d="M44.881,44.393v37.205c10.273,0,18.604-8.328,18.604-18.603S55.154,44.393,44.881,44.393z"/>
			<path fill="#FFFFFF" d="M26.278,62.995c0,10.274,8.329,18.603,18.603,18.603V44.393C34.607,44.393,26.278,52.721,26.278,62.995z"
				/>
		</g>
		<g>
			<path fill="#E7E6E5" d="M43.787,44.426v37.139c0.363,0.021,0.727,0.033,1.094,0.033V44.393
				C44.514,44.393,44.15,44.404,43.787,44.426z"/>
			<path fill="#FFFFFF" d="M44.881,44.393v37.205c0.367,0,0.732-0.012,1.095-0.033V44.426
				C45.613,44.404,45.248,44.393,44.881,44.393z"/>
		</g>
	</g>
</g>
</svg>
