<?xml version="1.0" encoding="utf-8"?>
<!-- Generator: Adobe Illustrator 16.0.0, SVG Export Plug-In . SVG Version: 6.00 Build 0)  -->
<!DOCTYPE svg PUBLIC "-//W3C//DTD SVG 1.1//EN" "http://www.w3.org/Graphics/SVG/1.1/DTD/svg11.dtd">
<svg version="1.1" id="Capa_1" xmlns="http://www.w3.org/2000/svg" xmlns:xlink="http://www.w3.org/1999/xlink" x="0px" y="0px"
	 width="55.875px" height="116.333px" viewBox="0 0 55.875 116.333" enable-background="new 0 0 55.875 116.333"
	 xml:space="preserve">
<g>
	<polygon fill="#E3C7DE" points="0.291,17.727 0,104.618 43.591,116.242 43.3,29.642 	"/>
	<polygon fill="#D4A9CB" points="5.521,16.564 55.796,12.496 56.086,99.097 45.916,99.968 45.916,27.608 	"/>
	<polygon fill="#C185B3" points="19.761,0 19.761,12.496 53.181,10.171 	"/>
	<g>
		<g>
			<g>
				<path fill="#B6337B" d="M27.52,50.84c0,0-6.693-5.773-13.377,0.407c0,0-2.34-8.546,6.632-8.565
					C29.099,42.665,27.52,50.84,27.52,50.84z"/>
			</g>
			<g>
				<path fill="#BB4186" d="M23.585,70.518c0,0,5.246-9.702,5.474-10.399c0.252-0.766,1.604-4.007-0.076-9.733
					c-1.68-5.725-3.938-6.646-3.938-6.646c3.693,2.453,1.42,7.182-0.266,10.128c-0.315,0.553-0.642,1.098-0.976,1.639
					C22.312,57.929,8.771,82.168,8.771,82.168l3.976,6.151L23.585,70.518z"/>
			</g>
			<path fill="#E7E6E5" d="M20.573,61.141c-1.242,2.195-2.705,4.792-4.17,7.401c0.713,1.327,1.227,2.277,1.227,2.277l2.884,4.74
				l3.071-5.042c0,0,0.497-0.921,1.192-2.215C23.291,65.766,21.815,63.253,20.573,61.141z"/>
			<g>
				<path fill="#BD488B" d="M17.932,70.518c0,0-5.246-9.702-5.475-10.399c-0.251-0.766-1.603-4.007,0.077-9.733
					c1.68-5.725,3.939-6.646,3.939-6.646c-3.695,2.453-1.42,7.182,0.266,10.128c0.314,0.553,0.642,1.098,0.975,1.639
					c1.491,2.422,15.38,26.187,15.38,26.187l-4.325,6.625L17.932,70.518z"/>
			</g>
		</g>
	</g>
</g>
</svg>
