<?xml version="1.0" encoding="utf-8"?>
<!-- Generator: Adobe Illustrator 16.0.0, SVG Export Plug-In . SVG Version: 6.00 Build 0)  -->
<!DOCTYPE svg PUBLIC "-//W3C//DTD SVG 1.1//EN" "http://www.w3.org/Graphics/SVG/1.1/DTD/svg11.dtd">
<svg version="1.1" id="Capa_1" xmlns="http://www.w3.org/2000/svg" xmlns:xlink="http://www.w3.org/1999/xlink" x="0px" y="0px"
	 width="116.25px" height="124px" viewBox="0 0 116.25 124" enable-background="new 0 0 116.25 124" xml:space="preserve">
<g>
	<path fill="#D1D1D1" d="M79.452,105.863c-2.096,0.941-4.256,1.766-6.487,2.428c2.146-1.928,4.146-4.018,6.004-6.236l-1.146-9.031
		c-4.336,6.509-9.906,12.044-16.509,16.14V84.479c5.503,0.328,10.84,1.521,15.867,3.492l-0.848-6.689
		c-4.816-1.578-9.854-2.541-15.02-2.818V61.297h26.694c-0.221,4.896-0.984,9.662-2.232,14.213l5.293,4.357
		c1.878-5.891,3.008-12.127,3.273-18.57h15.865c-0.563,9.893-3.897,19.053-9.234,26.721l4.64,3.82
		c6.723-9.486,10.688-21.057,10.688-33.541c0-15.012-5.719-28.713-15.092-39.041l0.072-0.072l-2.141-2.127
		C89.65,7.624,77.473,1.866,64.351,0.481c-0.098-0.01-0.194-0.025-0.292-0.035c-0.801-0.08-1.605-0.137-2.413-0.184
		c-0.181-0.012-0.359-0.031-0.541-0.039c-0.338-0.018-0.678-0.018-1.017-0.029C58.785,0.09,57.444,0.018,56.063,0
		c-0.417-0.008-0.814,0.094-1.195,0.246c-0.071,0.004-0.142,0.012-0.212,0.016c-0.808,0.047-1.612,0.104-2.413,0.184
		c-0.098,0.01-0.194,0.025-0.292,0.035c-13.122,1.385-25.3,7.143-34.79,16.576l-2.141,2.127l0.072,0.072
		C5.719,29.584,0,43.286,0,58.297c0,15.014,5.719,28.715,15.092,39.041l-0.072,0.072l2.141,2.128
		c9.49,9.432,21.668,15.189,34.79,16.574c0.098,0.01,0.194,0.025,0.292,0.035c0.801,0.08,1.605,0.137,2.413,0.186
		c0.07,0.004,0.141,0.012,0.212,0.016c0.37,0.146,0.757,0.244,1.156,0.244c0.013,0,0.026,0,0.039,0
		c1.382-0.018,2.723-0.09,4.025-0.193c0.339-0.012,0.679-0.012,1.017-0.027c0.182-0.01,0.36-0.029,0.541-0.039
		c0.808-0.049,1.612-0.105,2.413-0.186c0.098-0.01,0.194-0.025,0.292-0.035c5.508-0.58,10.846-1.941,15.893-4.014L79.452,105.863z
		 M110.208,55.297H94.343c-0.373-9.061-2.428-17.73-5.918-25.57c2.981-1.826,5.816-3.926,8.466-6.299
		C104.594,31.979,109.512,43.083,110.208,55.297z M92.615,19.208c-2.167,1.912-4.473,3.619-6.886,5.129
		c-3.384-6.051-7.687-11.473-12.765-16.033C80.322,10.487,87.002,14.252,92.615,19.208z M61.314,7.432
		c7.854,4.871,14.27,11.762,18.853,19.928c-5.876,2.742-12.248,4.363-18.853,4.758V7.432z M61.314,38.131
		c7.547-0.402,14.83-2.238,21.529-5.385c3.017,6.926,4.805,14.566,5.165,22.551H61.314V38.131z M43.318,8.309
		c-5.078,4.557-9.378,9.973-12.76,16.02c-2.408-1.508-4.71-3.211-6.873-5.121C29.294,14.256,35.968,10.493,43.318,8.309z
		 M19.41,23.428c2.645,2.369,5.476,4.467,8.451,6.289c-3.484,7.834-5.532,16.506-5.903,25.58H6.093
		C6.789,43.083,11.707,31.979,19.41,23.428z M6.093,61.297h15.865c0.371,9.074,2.419,17.746,5.903,25.58
		c-2.976,1.824-5.807,3.92-8.451,6.289C11.707,84.616,6.789,73.514,6.093,61.297z M23.686,97.389
		c2.163-1.91,4.466-3.613,6.873-5.121c3.382,6.047,7.682,11.46,12.76,16.019C35.968,106.102,29.294,102.338,23.686,97.389z
		 M54.986,109.166c-7.863-4.873-14.285-11.753-18.867-19.923c5.88-2.744,12.257-4.369,18.867-4.764V109.166z M54.986,78.463
		c-7.552,0.404-14.841,2.242-21.543,5.393c-3.011-6.92-4.793-14.563-5.151-22.559h26.694V78.463z M54.986,55.297H28.292
		c0.358-7.996,2.141-15.637,5.151-22.557c6.702,3.15,13.991,4.988,21.543,5.391V55.297z M54.986,32.118
		c-6.61-0.395-12.987-2.02-18.868-4.764c4.583-8.17,11.005-15.053,18.868-19.924V32.118z"/>
	<polygon fill="#D1D1D1" points="109.244,100.006 79.651,75.649 84.475,113.672 93.189,108.863 101.325,123.609 108.665,119.561 
		100.529,104.814 	"/>
</g>
</svg>
