<?xml version="1.0" encoding="utf-8"?>
<!-- Generator: Adobe Illustrator 16.0.0, SVG Export Plug-In . SVG Version: 6.00 Build 0)  -->
<!DOCTYPE svg PUBLIC "-//W3C//DTD SVG 1.1//EN" "http://www.w3.org/Graphics/SVG/1.1/DTD/svg11.dtd">
<svg version="1.1" id="Capa_1" xmlns="http://www.w3.org/2000/svg" xmlns:xlink="http://www.w3.org/1999/xlink" x="0px" y="0px"
	 width="60.75px" height="110.5px" viewBox="0 0 60.75 110.5" enable-background="new 0 0 60.75 110.5" xml:space="preserve">
<g>
	<g>
		<polygon fill="#EECF9A" points="58.729,27.972 48.447,33.908 1.939,7.055 12.22,1.12 		"/>
		<polygon fill="#9D89B8" points="48.447,33.908 46.51,35.027 0,8.174 1.939,7.055 		"/>
		<polygon fill="#9D89B8" points="60.667,26.852 58.729,27.972 12.22,1.12 14.158,0 		"/>
		<polygon fill="#9D89B8" points="13.684,0.274 15.621,1.394 2.908,8.734 0.969,7.615 		"/>
	</g>
	<g>
		<path fill="#EBC893" d="M58.73,103.762L58.73,103.762c-3.365,1.441-6.771,3.402-10.137,5.83l-0.144,0.104l-0.001-75.944
			l0.138-0.119c3.331-2.886,6.819-4.885,10.144-5.817l0,0V103.762z"/>
		<polygon fill="#9376AB" points="48.45,109.696 46.512,110.817 46.511,34.872 48.449,33.752 		"/>
		<polygon fill="#9376AB" points="60.67,102.641 58.73,103.762 58.73,27.816 60.668,26.697 		"/>
	</g>
	<g>
		<polygon fill="#C89BC2" points="46.51,110.917 0,84.066 0.001,8.121 46.511,34.972 		"/>
		<polygon fill="#F6DF81" points="46.51,81.979 0.001,55.127 0.001,37.061 46.511,63.913 		"/>
	</g>
</g>
</svg>
